07:04:06 PM.657: CPU Name: AMD Ryzen 3 3200G with Radeon Vega Graphics
07:04:06 PM.657: CPU Speed: 1555.158MHz
07:04:06 PM.657: Physical Cores: 4, Logical Cores: 4
07:04:06 PM.657: Physical Memory: 16006MB Total, 861MB Free
07:04:06 PM.657: Kernel Version: Linux 5.4.0-77-generic
07:04:06 PM.657: Distribution: "Linux Mint" "20.2"
07:04:06 PM.658: Window System: X11.0, Vendor: The X.Org Foundation, Version: 1.20.9
07:04:06 PM.659: Portable mode: false
07:04:06 PM.725: OBS 25.0.3+dfsg1-2 (linux)
07:04:06 PM.725: ---------------------------------
07:04:06 PM.726: ---------------------------------
07:04:06 PM.726: audio settings reset:
07:04:06 PM.726: 	samples per sec: 44100
07:04:06 PM.726: 	speakers:        2
07:04:06 PM.735: ---------------------------------
07:04:06 PM.735: Initializing OpenGL...
07:04:06 PM.782: Loading up OpenGL on adapter ATI Technologies Inc. Radeon RX 5500 XT
07:04:06 PM.782: OpenGL loaded successfully, version 3.3.14735 Core Profile Context, shading language 4.60
07:04:06 PM.840: ---------------------------------
07:04:06 PM.840: video settings reset:
07:04:06 PM.840: 	base resolution:   1920x1080
07:04:06 PM.840: 	output resolution: 1280x720
07:04:06 PM.840: 	downscale filter:  Bicubic
07:04:06 PM.840: 	fps:               30/1
07:04:06 PM.840: 	format:            NV12
07:04:06 PM.840: 	YUV mode:          601/Partial
07:04:06 PM.840: NV12 texture support not available
07:04:06 PM.841: Audio monitoring device:
07:04:06 PM.841: 	name: Default
07:04:06 PM.841: 	id: default
07:04:06 PM.841: ---------------------------------
07:04:06 PM.844: Failed to load 'en-US' text for module: 'decklink-ouput-ui.so'
07:04:06 PM.891: A DeckLink iterator could not be created.  The DeckLink drivers may not be installed
07:04:06 PM.891: No blackmagic support
07:04:06 PM.926: os_dlopen(libnvidia-encode.so.1->libnvidia-encode.so.1): libnvidia-encode.so.1: cannot open shared object file: No such file or directory
07:04:06 PM.926: 
07:04:06 PM.926: FFMPEG VAAPI supported
07:04:06 PM.950: VLC found, VLC video source enabled
07:04:06 PM.950: ---------------------------------
07:04:06 PM.950:   Loaded Modules:
07:04:06 PM.950:     vlc-video.so
07:04:06 PM.950:     text-freetype2.so
07:04:06 PM.950:     rtmp-services.so
07:04:06 PM.950:     obs-x264.so
07:04:06 PM.950:     obs-transitions.so
07:04:06 PM.950:     obs-outputs.so
07:04:06 PM.950:     obs-filters.so
07:04:06 PM.950:     obs-ffmpeg.so
07:04:06 PM.950:     linux-v4l2.so
07:04:06 PM.950:     linux-pulseaudio.so
07:04:06 PM.950:     linux-jack.so
07:04:06 PM.950:     linux-decklink.so
07:04:06 PM.950:     linux-capture.so
07:04:06 PM.950:     linux-alsa.so
07:04:06 PM.950:     image-source.so
07:04:06 PM.950:     frontend-tools.so
07:04:06 PM.950:     decklink-ouput-ui.so
07:04:06 PM.950: ---------------------------------
07:04:06 PM.950: ==== Startup complete ===============================================
07:04:06 PM.951: Service '' not found
07:04:06 PM.953: No scene file found, creating default scene
07:04:06 PM.953: All scene data cleared
07:04:06 PM.953: ------------------------------------------------
07:04:06 PM.962: pulse-input: Server name: 'pulseaudio 13.99.1'
07:04:06 PM.962: pulse-input: Audio format: s16le, 44100 Hz, 2 channels
07:04:06 PM.963: pulse-input: Started recording from 'alsa_output.pci-0000_0b_00.6.analog-stereo.monitor'
07:04:06 PM.963: pulse-input: Server name: 'pulseaudio 13.99.1'
07:04:06 PM.963: pulse-input: Audio format: s16le, 48000 Hz, 1 channels
07:04:06 PM.963: pulse-input: Started recording from 'alsa_input.usb-0c76_KLIM_Talk-00.mono-fallback'
07:04:06 PM.963: Switched to scene 'Scene'
07:04:06 PM.964: Failed to glob scene collections
07:04:07 PM.156: [rtmp-services plugin] Update file 'services.json' (version 176) rejected
07:04:07 PM.156: [rtmp-services plugin] Successfully updated package (version 176)
07:04:07 PM.534: adding 46 milliseconds of audio buffering, total audio buffering is now 46 milliseconds (source: Desktop Audio)
07:04:07 PM.534: 
07:04:18 PM.070: 
07:04:18 PM.070: ==== Auto-config wizard testing commencing ======

07:04:18 PM.108: ---------------------------------
07:04:18 PM.108: video settings reset:
07:04:18 PM.108: 	base resolution:   1920x1080
07:04:18 PM.108: 	output resolution: 1920x1080
07:04:18 PM.108: 	downscale filter:  Bicubic
07:04:18 PM.108: 	fps:               30/1
07:04:18 PM.108: 	format:            NV12
07:04:18 PM.108: 	YUV mode:          601/Partial
07:04:18 PM.108: NV12 texture support not available
07:04:18 PM.109: ---------------------------------
07:04:18 PM.109: [x264 encoder: 'test_x264'] preset: veryfast
07:04:18 PM.109: [x264 encoder: 'test_x264'] profile: high
07:04:18 PM.109: [x264 encoder: 'test_x264'] settings:
07:04:18 PM.109: 	rate_control: CRF
07:04:18 PM.109: 	bitrate:      0
07:04:18 PM.109: 	buffer size:  0
07:04:18 PM.109: 	crf:          20
07:04:18 PM.109: 	fps_num:      30
07:04:18 PM.109: 	fps_den:      1
07:04:18 PM.109: 	width:        1920
07:04:18 PM.109: 	height:       1080
07:04:18 PM.109: 	keyint:       250
07:04:18 PM.109: 
07:04:18 PM.116: ---------------------------------
07:04:18 PM.116: [FFmpeg aac encoder: 'test_aac'] bitrate: 32, channels: 2, channel_layout: 3
07:04:18 PM.116: 
07:04:23 PM.121: Output 'null': stopping
07:04:23 PM.121: Output 'null': Total frames output: 121
07:04:23 PM.121: Output 'null': Total drawn frames: 150
07:04:23 PM.198: Video stopped, number of skipped frames due to encoding lag: 12/142 (8.5%)
07:04:23 PM.311: ---------------------------------
07:04:23 PM.311: video settings reset:
07:04:23 PM.311: 	base resolution:   1920x1080
07:04:23 PM.311: 	output resolution: 1280x720
07:04:23 PM.311: 	downscale filter:  Bicubic
07:04:23 PM.311: 	fps:               30/1
07:04:23 PM.311: 	format:            NV12
07:04:23 PM.311: 	YUV mode:          601/Partial
07:04:23 PM.311: NV12 texture support not available
07:04:23 PM.311: ---------------------------------
07:04:23 PM.311: [x264 encoder: 'test_x264'] preset: veryfast
07:04:23 PM.311: [x264 encoder: 'test_x264'] profile: high
07:04:23 PM.311: [x264 encoder: 'test_x264'] settings:
07:04:23 PM.311: 	rate_control: CRF
07:04:23 PM.311: 	bitrate:      0
07:04:23 PM.311: 	buffer size:  0
07:04:23 PM.311: 	crf:          20
07:04:23 PM.311: 	fps_num:      30
07:04:23 PM.311: 	fps_den:      1
07:04:23 PM.311: 	width:        1280
07:04:23 PM.311: 	height:       720
07:04:23 PM.311: 	keyint:       250
07:04:23 PM.311: 
07:04:23 PM.315: ---------------------------------
07:04:23 PM.315: [FFmpeg aac encoder: 'test_aac'] bitrate: 32, channels: 2, channel_layout: 3
07:04:23 PM.315: 
07:04:28 PM.318: Output 'null': stopping
07:04:28 PM.318: Output 'null': Total frames output: 129
07:04:28 PM.318: Output 'null': Total drawn frames: 150
07:04:28 PM.412: ---------------------------------
07:04:28 PM.412: video settings reset:
07:04:28 PM.412: 	base resolution:   1920x1080
07:04:28 PM.412: 	output resolution: 1148x646
07:04:28 PM.412: 	downscale filter:  Bicubic
07:04:28 PM.412: 	fps:               30/1
07:04:28 PM.412: 	format:            NV12
07:04:28 PM.412: 	YUV mode:          601/Partial
07:04:28 PM.412: NV12 texture support not available
07:04:28 PM.413: ---------------------------------
07:04:28 PM.413: [x264 encoder: 'test_x264'] preset: veryfast
07:04:28 PM.413: [x264 encoder: 'test_x264'] profile: high
07:04:28 PM.413: [x264 encoder: 'test_x264'] settings:
07:04:28 PM.413: 	rate_control: CRF
07:04:28 PM.413: 	bitrate:      0
07:04:28 PM.413: 	buffer size:  0
07:04:28 PM.413: 	crf:          20
07:04:28 PM.413: 	fps_num:      30
07:04:28 PM.413: 	fps_den:      1
07:04:28 PM.413: 	width:        1148
07:04:28 PM.413: 	height:       646
07:04:28 PM.413: 	keyint:       250
07:04:28 PM.413: 
07:04:28 PM.418: ---------------------------------
07:04:28 PM.419: [FFmpeg aac encoder: 'test_aac'] bitrate: 32, channels: 2, channel_layout: 3
07:04:28 PM.419: 
07:04:33 PM.421: Output 'null': stopping
07:04:33 PM.421: Output 'null': Total frames output: 129
07:04:33 PM.421: Output 'null': Total drawn frames: 150
07:04:33 PM.513: ---------------------------------
07:04:33 PM.513: video settings reset:
07:04:33 PM.513: 	base resolution:   1920x1080
07:04:33 PM.513: 	output resolution: 960x540
07:04:33 PM.513: 	downscale filter:  Bicubic
07:04:33 PM.513: 	fps:               30/1
07:04:33 PM.513: 	format:            NV12
07:04:33 PM.513: 	YUV mode:          601/Partial
07:04:33 PM.513: NV12 texture support not available
07:04:33 PM.514: ---------------------------------
07:04:33 PM.514: [x264 encoder: 'test_x264'] preset: veryfast
07:04:33 PM.514: [x264 encoder: 'test_x264'] profile: high
07:04:33 PM.514: [x264 encoder: 'test_x264'] settings:
07:04:33 PM.514: 	rate_control: CRF
07:04:33 PM.514: 	bitrate:      0
07:04:33 PM.514: 	buffer size:  0
07:04:33 PM.514: 	crf:          20
07:04:33 PM.514: 	fps_num:      30
07:04:33 PM.514: 	fps_den:      1
07:04:33 PM.514: 	width:        960
07:04:33 PM.514: 	height:       540
07:04:33 PM.514: 	keyint:       250
07:04:33 PM.514: 
07:04:33 PM.518: ---------------------------------
07:04:33 PM.518: [FFmpeg aac encoder: 'test_aac'] bitrate: 32, channels: 2, channel_layout: 3
07:04:33 PM.518: 
07:04:38 PM.519: Output 'null': stopping
07:04:38 PM.520: Output 'null': Total frames output: 129
07:04:38 PM.520: Output 'null': Total drawn frames: 150
07:04:38 PM.614: ---------------------------------
07:04:38 PM.614: video settings reset:
07:04:38 PM.614: 	base resolution:   1920x1080
07:04:38 PM.614: 	output resolution: 1280x720
07:04:38 PM.614: 	downscale filter:  Bicubic
07:04:38 PM.614: 	fps:               30/1
07:04:38 PM.614: 	format:            NV12
07:04:38 PM.614: 	YUV mode:          601/Partial
07:04:38 PM.614: NV12 texture support not available
07:04:45 PM.882: ---------------------------------
07:04:45 PM.882: video settings reset:
07:04:45 PM.882: 	base resolution:   1920x1080
07:04:45 PM.882: 	output resolution: 1280x720
07:04:45 PM.882: 	downscale filter:  Bicubic
07:04:45 PM.882: 	fps:               30/1
07:04:45 PM.882: 	format:            NV12
07:04:45 PM.882: 	YUV mode:          601/Partial
07:04:45 PM.882: NV12 texture support not available
07:04:45 PM.884: 
07:04:45 PM.884: ==== Auto-config wizard testing stopping ========

07:04:53 PM.355: xshm-input: Geometry 1920x1080 @ 0,0
07:04:53 PM.361: User added source 'Screen Capture (XSHM)' (xshm_input) to scene 'Scene'
07:08:13 PM.744: ---------------------------------
07:08:13 PM.744: [x264 encoder: 'simple_h264_recording'] preset: veryfast
07:08:13 PM.744: [x264 encoder: 'simple_h264_recording'] profile: high
07:08:13 PM.744: [x264 encoder: 'simple_h264_recording'] settings:
07:08:13 PM.744: 	rate_control: CRF
07:08:13 PM.744: 	bitrate:      0
07:08:13 PM.744: 	buffer size:  0
07:08:13 PM.744: 	crf:          21
07:08:13 PM.744: 	fps_num:      30
07:08:13 PM.744: 	fps_den:      1
07:08:13 PM.744: 	width:        1280
07:08:13 PM.744: 	height:       720
07:08:13 PM.744: 	keyint:       250
07:08:13 PM.744: 
07:08:13 PM.747: ---------------------------------
07:08:13 PM.747: [FFmpeg aac encoder: 'simple_aac_recording'] bitrate: 192, channels: 2, channel_layout: 3
07:08:13 PM.747: 
07:08:13 PM.755: ==== Recording Start ===============================================
07:08:13 PM.755: [ffmpeg muxer: 'simple_file_output'] Writing file '/home/quinn/2021-07-14 19-08-13.mkv'...
07:17:42 PM.343: [ffmpeg muxer: 'simple_file_output'] Output of file '/home/quinn/2021-07-14 19-08-13.mkv' stopped
07:17:42 PM.344: Output 'simple_file_output': stopping
07:17:42 PM.344: Output 'simple_file_output': Total frames output: 17035
07:17:42 PM.344: Output 'simple_file_output': Total drawn frames: 17057
07:17:42 PM.344: ==== Recording Stop ================================================
07:18:04 PM.369: ==== Shutting down ==================================================
07:18:04 PM.371: Switched to scene '(null)'
07:18:04 PM.372: pulse-input: Stopped recording from 'alsa_output.pci-0000_0b_00.6.analog-stereo.monitor'
07:18:04 PM.372: pulse-input: Got 514421 packets with 36930041 frames
07:18:04 PM.372: pulse-input: Stopped recording from 'alsa_input.usb-0c76_KLIM_Talk-00.mono-fallback'
07:18:04 PM.372: pulse-input: Got 47320 packets with 40194098 frames
07:18:04 PM.373: All scene data cleared
07:18:04 PM.373: ------------------------------------------------
07:18:04 PM.452: Freeing OBS context data
07:18:04 PM.472: [Scripting] Total detached callbacks: 0
07:18:04 PM.506: == Profiler Results =============================
07:18:04 PM.506: run_program_init: 2795.25 ms
07:18:04 PM.506:  ┣OBSApp::AppInit: 4.31 ms
07:18:04 PM.506:  ┃ ┗OBSApp::InitLocale: 1.871 ms
07:18:04 PM.506:  ┗OBSApp::OBSInit: 2642.77 ms
07:18:04 PM.506:    ┣obs_startup: 19.992 ms
07:18:04 PM.506:    ┗OBSBasic::OBSInit: 2556.87 ms
07:18:04 PM.507:      ┣OBSBasic::InitBasicConfig: 0.673 ms
07:18:04 PM.507:      ┣OBSBasic::ResetAudio: 0.105 ms
07:18:04 PM.507:      ┣OBSBasic::ResetVideo: 115.044 ms
07:18:04 PM.507:      ┣OBSBasic::InitOBSCallbacks: 0.004 ms
07:18:04 PM.507:      ┣OBSBasic::InitHotkeys: 0.033 ms
07:18:04 PM.507:      ┣obs_load_all_modules: 108.427 ms
07:18:04 PM.507:      ┃ ┣obs_init_module(decklink-ouput-ui.so): 0.482 ms
07:18:04 PM.507:      ┃ ┣obs_init_module(frontend-tools.so): 30.917 ms
07:18:04 PM.507:      ┃ ┣obs_init_module(image-source.so): 0.006 ms
07:18:04 PM.507:      ┃ ┣obs_init_module(linux-alsa.so): 0.002 ms
07:18:04 PM.507:      ┃ ┣obs_init_module(linux-capture.so): 0.354 ms
07:18:04 PM.507:      ┃ ┣obs_init_module(linux-decklink.so): 0.204 ms
07:18:04 PM.507:      ┃ ┣obs_init_module(linux-jack.so): 0.003 ms
07:18:04 PM.507:      ┃ ┣obs_init_module(linux-pulseaudio.so): 0.003 ms
07:18:04 PM.507:      ┃ ┣obs_init_module(linux-v4l2.so): 0.002 ms
07:18:04 PM.507:      ┃ ┣obs_init_module(obs-ffmpeg.so): 0.272 ms
07:18:04 PM.507:      ┃ ┃ ┗nvenc_check: 0.253 ms
07:18:04 PM.507:      ┃ ┣obs_init_module(obs-filters.so): 0.013 ms
07:18:04 PM.507:      ┃ ┣obs_init_module(obs-outputs.so): 0.004 ms
07:18:04 PM.507:      ┃ ┣obs_init_module(obs-transitions.so): 0.009 ms
07:18:04 PM.507:      ┃ ┣obs_init_module(obs-x264.so): 0.002 ms
07:18:04 PM.507:      ┃ ┣obs_init_module(rtmp-services.so): 0.163 ms
07:18:04 PM.507:      ┃ ┣obs_init_module(text-freetype2.so): 0.05 ms
07:18:04 PM.507:      ┃ ┗obs_init_module(vlc-video.so): 4.596 ms
07:18:04 PM.507:      ┣OBSBasic::ResetOutputs: 0.751 ms
07:18:04 PM.507:      ┣OBSBasic::CreateHotkeys: 0.113 ms
07:18:04 PM.507:      ┣OBSBasic::InitService: 1.909 ms
07:18:04 PM.507:      ┣OBSBasic::InitPrimitives: 0.159 ms
07:18:04 PM.507:      ┗OBSBasic::Load: 10.659 ms
07:18:04 PM.507: obs_hotkey_thread(25 ms): min=0.041 ms, median=6.763 ms, max=36.126 ms, 99th percentile=21.455 ms, 99.5884% below 25 ms
07:18:04 PM.507: audio_thread(Audio): min=0 ms, median=0.327 ms, max=9.178 ms, 99th percentile=1.21 ms
07:18:04 PM.507:  ┗receive_audio: min=0.003 ms, median=0.365 ms, max=9.099 ms, 99th percentile=1.165 ms, 0.710886 calls per parent call
07:18:04 PM.507:    ┣buffer_audio: min=0 ms, median=0.001 ms, max=0.191 ms, 99th percentile=0.002 ms
07:18:04 PM.507:    ┗do_encode: min=0.012 ms, median=0.362 ms, max=9.094 ms, 99th percentile=1.154 ms
07:18:04 PM.507:      ┣encode(test_aac): min=0.012 ms, median=0.119 ms, max=1.289 ms, 99th percentile=0.278 ms, 0.0337793 calls per parent call
07:18:04 PM.507:      ┗encode(simple_aac_recording): min=0.014 ms, median=0.36 ms, max=9.087 ms, 99th percentile=1.132 ms
07:18:04 PM.507: obs_graphics_thread(33.3333 ms): min=0.185 ms, median=0.887 ms, max=12.839 ms, 99th percentile=7.302 ms, 100% below 33.333 ms
07:18:04 PM.507:  ┣tick_sources: min=0.001 ms, median=0.009 ms, max=0.053 ms, 99th percentile=0.011 ms
07:18:04 PM.507:  ┣output_frame: min=0.124 ms, median=0.285 ms, max=9.63 ms, 99th percentile=0.483 ms
07:18:04 PM.507:  ┃ ┗gs_context(video->graphics): min=0.123 ms, median=0.285 ms, max=9.63 ms, 99th percentile=0.483 ms
07:18:04 PM.507:  ┃   ┣render_video: min=0.072 ms, median=0.162 ms, max=9.552 ms, 99th percentile=0.375 ms
07:18:04 PM.507:  ┃   ┃ ┗render_main_texture: min=0.067 ms, median=0.152 ms, max=9.539 ms, 99th percentile=0.366 ms
07:18:04 PM.507:  ┃   ┗gs_flush: min=0.043 ms, median=0.093 ms, max=0.266 ms, 99th percentile=0.137 ms
07:18:04 PM.507:  ┗render_displays: min=0.008 ms, median=0.496 ms, max=12.644 ms, 99th percentile=4.26 ms
07:18:04 PM.507: obs_graphics_thread(33.3333 ms): min=0.71 ms, median=2.158 ms, max=23.865 ms, 99th percentile=19.735 ms, 100% below 33.333 ms
07:18:04 PM.507:  ┣tick_sources: min=0.004 ms, median=0.006 ms, max=0.013 ms, 99th percentile=0.01 ms
07:18:04 PM.507:  ┣output_frame: min=0.238 ms, median=0.738 ms, max=23.169 ms, 99th percentile=19.339 ms
07:18:04 PM.507:  ┃ ┣gs_context(video->graphics): min=0.238 ms, median=0.382 ms, max=21.927 ms, 99th percentile=19.338 ms
07:18:04 PM.507:  ┃ ┃ ┣render_video: min=0.16 ms, median=0.287 ms, max=19.251 ms, 99th percentile=1.649 ms
07:18:04 PM.507:  ┃ ┃ ┃ ┣render_main_texture: min=0.131 ms, median=0.157 ms, max=0.529 ms, 99th percentile=0.296 ms
07:18:04 PM.507:  ┃ ┃ ┃ ┣render_convert_texture: min=0.06 ms, median=0.066 ms, max=16.347 ms, 99th percentile=0.311 ms
07:18:04 PM.507:  ┃ ┃ ┃ ┗stage_output_texture: min=0.052 ms, median=0.057 ms, max=2.623 ms, 99th percentile=1.418 ms
07:18:04 PM.507:  ┃ ┃ ┣gs_flush: min=0.006 ms, median=0.065 ms, max=0.346 ms, 99th percentile=0.273 ms
07:18:04 PM.507:  ┃ ┃ ┗download_frame: min=0 ms, median=0.011 ms, max=21.267 ms, 99th percentile=12.398 ms
07:18:04 PM.507:  ┃ ┗output_video_data: min=0 ms, median=0.358 ms, max=3.002 ms, 99th percentile=2.275 ms
07:18:04 PM.507:  ┗render_displays: min=0.258 ms, median=1.325 ms, max=5.161 ms, 99th percentile=3.847 ms
07:18:04 PM.507: video_thread(video): min=0 ms, median=29.164 ms, max=199.255 ms, 99th percentile=151.322 ms
07:18:04 PM.507:  ┗receive_video: min=1.097 ms, median=29.713 ms, max=122.224 ms, 99th percentile=118.857 ms, 1.05185 calls per parent call
07:18:04 PM.507:    ┗do_encode: min=1.096 ms, median=29.712 ms, max=122.224 ms, 99th percentile=118.856 ms
07:18:04 PM.507:      ┗encode(test_x264): min=1.093 ms, median=29.664 ms, max=122.172 ms, 99th percentile=118.854 ms
07:18:04 PM.507: obs_graphics_thread(33.3333 ms): min=0.65 ms, median=1.499 ms, max=21.417 ms, 99th percentile=10.331 ms, 100% below 33.333 ms
07:18:04 PM.507:  ┣tick_sources: min=0.005 ms, median=0.007 ms, max=0.011 ms, 99th percentile=0.011 ms
07:18:04 PM.507:  ┣output_frame: min=0.269 ms, median=0.811 ms, max=20.969 ms, 99th percentile=9.448 ms
07:18:04 PM.507:  ┃ ┣gs_context(video->graphics): min=0.269 ms, median=0.641 ms, max=20.969 ms, 99th percentile=8.744 ms
07:18:04 PM.507:  ┃ ┃ ┣render_video: min=0.182 ms, median=0.498 ms, max=20.889 ms, 99th percentile=0.694 ms
07:18:04 PM.507:  ┃ ┃ ┃ ┣render_main_texture: min=0.142 ms, median=0.209 ms, max=0.523 ms, 99th percentile=0.333 ms
07:18:04 PM.507:  ┃ ┃ ┃ ┣render_output_texture: min=0.046 ms, median=0.09 ms, max=17.581 ms, 99th percentile=0.125 ms
07:18:04 PM.507:  ┃ ┃ ┃ ┣render_convert_texture: min=0.05 ms, median=0.101 ms, max=1.41 ms, 99th percentile=0.313 ms
07:18:04 PM.507:  ┃ ┃ ┃ ┗stage_output_texture: min=0.043 ms, median=0.08 ms, max=1.612 ms, 99th percentile=0.334 ms
07:18:04 PM.507:  ┃ ┃ ┣gs_flush: min=0.005 ms, median=0.094 ms, max=0.33 ms, 99th percentile=0.197 ms
07:18:04 PM.507:  ┃ ┃ ┗download_frame: min=0 ms, median=0.015 ms, max=8.096 ms, 99th percentile=7.252 ms
07:18:04 PM.507:  ┃ ┗output_video_data: min=0.14 ms, median=0.167 ms, max=0.972 ms, 99th percentile=0.937 ms
07:18:04 PM.507:  ┗render_displays: min=0.3 ms, median=0.586 ms, max=4.157 ms, 99th percentile=3.836 ms
07:18:04 PM.507: video_thread(video): min=0.616 ms, median=0.993 ms, max=3.382 ms, 99th percentile=3.079 ms
07:18:04 PM.507:  ┗receive_video: min=0.614 ms, median=0.991 ms, max=3.38 ms, 99th percentile=3.077 ms
07:18:04 PM.507:    ┗do_encode: min=0.614 ms, median=0.989 ms, max=3.379 ms, 99th percentile=3.076 ms
07:18:04 PM.507:      ┗encode(test_x264): min=0.578 ms, median=0.951 ms, max=3.344 ms, 99th percentile=3.043 ms
07:18:04 PM.507: obs_graphics_thread(33.3333 ms): min=0.617 ms, median=1.456 ms, max=9.205 ms, 99th percentile=8.851 ms, 100% below 33.333 ms
07:18:04 PM.507:  ┣tick_sources: min=0.005 ms, median=0.007 ms, max=0.013 ms, 99th percentile=0.011 ms
07:18:04 PM.507:  ┣output_frame: min=0.27 ms, median=0.792 ms, max=8.353 ms, 99th percentile=7.983 ms
07:18:04 PM.507:  ┃ ┣gs_context(video->graphics): min=0.27 ms, median=0.655 ms, max=8.172 ms, 99th percentile=7.671 ms
07:18:04 PM.507:  ┃ ┃ ┣render_video: min=0.185 ms, median=0.515 ms, max=1.567 ms, 99th percentile=0.717 ms
07:18:04 PM.507:  ┃ ┃ ┃ ┣render_main_texture: min=0.143 ms, median=0.211 ms, max=0.441 ms, 99th percentile=0.388 ms
07:18:04 PM.507:  ┃ ┃ ┃ ┣render_output_texture: min=0.057 ms, median=0.089 ms, max=0.589 ms, 99th percentile=0.241 ms
07:18:04 PM.507:  ┃ ┃ ┃ ┣render_convert_texture: min=0.05 ms, median=0.1 ms, max=0.554 ms, 99th percentile=0.147 ms
07:18:04 PM.507:  ┃ ┃ ┃ ┗stage_output_texture: min=0.052 ms, median=0.099 ms, max=0.222 ms, 99th percentile=0.205 ms
07:18:04 PM.507:  ┃ ┃ ┣gs_flush: min=0.007 ms, median=0.095 ms, max=0.323 ms, 99th percentile=0.22 ms
07:18:04 PM.507:  ┃ ┃ ┗download_frame: min=0 ms, median=0.015 ms, max=7.451 ms, 99th percentile=6.947 ms
07:18:04 PM.507:  ┃ ┗output_video_data: min=0.102 ms, median=0.134 ms, max=0.311 ms, 99th percentile=0.3 ms
07:18:04 PM.507:  ┗render_displays: min=0.275 ms, median=0.566 ms, max=2.997 ms, 99th percentile=2.465 ms
07:18:04 PM.507: video_thread(video): min=0.542 ms, median=0.84 ms, max=2.07 ms, 99th percentile=1.982 ms
07:18:04 PM.507:  ┗receive_video: min=0.541 ms, median=0.838 ms, max=2.068 ms, 99th percentile=1.98 ms
07:18:04 PM.507:    ┗do_encode: min=0.54 ms, median=0.837 ms, max=2.067 ms, 99th percentile=1.979 ms
07:18:04 PM.507:      ┗encode(test_x264): min=0.511 ms, median=0.797 ms, max=2.065 ms, 99th percentile=1.943 ms
07:18:04 PM.507: obs_graphics_thread(33.3333 ms): min=0.553 ms, median=1.345 ms, max=7.993 ms, 99th percentile=7.409 ms, 100% below 33.333 ms
07:18:04 PM.507:  ┣tick_sources: min=0.004 ms, median=0.007 ms, max=0.075 ms, 99th percentile=0.03 ms
07:18:04 PM.507:  ┣output_frame: min=0.226 ms, median=0.763 ms, max=7.174 ms, 99th percentile=6.615 ms
07:18:04 PM.507:  ┃ ┣gs_context(video->graphics): min=0.226 ms, median=0.661 ms, max=7.07 ms, 99th percentile=6.512 ms
07:18:04 PM.507:  ┃ ┃ ┣render_video: min=0.161 ms, median=0.517 ms, max=1.534 ms, 99th percentile=0.74 ms
07:18:04 PM.507:  ┃ ┃ ┃ ┣render_main_texture: min=0.142 ms, median=0.213 ms, max=0.376 ms, 99th percentile=0.311 ms
07:18:04 PM.508:  ┃ ┃ ┃ ┣render_output_texture: min=0.046 ms, median=0.09 ms, max=0.538 ms, 99th percentile=0.135 ms
07:18:04 PM.508:  ┃ ┃ ┃ ┣render_convert_texture: min=0.049 ms, median=0.101 ms, max=0.571 ms, 99th percentile=0.148 ms
07:18:04 PM.508:  ┃ ┃ ┃ ┗stage_output_texture: min=0.052 ms, median=0.098 ms, max=0.197 ms, 99th percentile=0.168 ms
07:18:04 PM.508:  ┃ ┃ ┣gs_flush: min=0.006 ms, median=0.092 ms, max=2.743 ms, 99th percentile=0.265 ms
07:18:04 PM.508:  ┃ ┃ ┗download_frame: min=0 ms, median=0.015 ms, max=6.351 ms, 99th percentile=5.819 ms
07:18:04 PM.508:  ┃ ┗output_video_data: min=0.07 ms, median=0.094 ms, max=0.212 ms, 99th percentile=0.209 ms
07:18:04 PM.508:  ┗render_displays: min=0.238 ms, median=0.506 ms, max=3.737 ms, 99th percentile=2.358 ms
07:18:04 PM.508: video_thread(video): min=0.326 ms, median=0.631 ms, max=2.586 ms, 99th percentile=2.268 ms
07:18:04 PM.508:  ┗receive_video: min=0.326 ms, median=0.629 ms, max=2.584 ms, 99th percentile=2.266 ms
07:18:04 PM.508:    ┗do_encode: min=0.325 ms, median=0.628 ms, max=2.583 ms, 99th percentile=2.264 ms
07:18:04 PM.508:      ┗encode(test_x264): min=0.308 ms, median=0.606 ms, max=2.558 ms, 99th percentile=2.198 ms
07:18:04 PM.508: obs_graphics_thread(33.3333 ms): min=0.427 ms, median=0.882 ms, max=2.14 ms, 99th percentile=1.49 ms, 100% below 33.333 ms
07:18:04 PM.508:  ┣tick_sources: min=0.005 ms, median=0.008 ms, max=0.018 ms, 99th percentile=0.015 ms
07:18:04 PM.508:  ┣output_frame: min=0.136 ms, median=0.28 ms, max=0.702 ms, 99th percentile=0.36 ms
07:18:04 PM.508:  ┃ ┗gs_context(video->graphics): min=0.135 ms, median=0.279 ms, max=0.701 ms, 99th percentile=0.359 ms
07:18:04 PM.508:  ┃   ┣render_video: min=0.081 ms, median=0.158 ms, max=0.347 ms, 99th percentile=0.178 ms
07:18:04 PM.508:  ┃   ┃ ┗render_main_texture: min=0.077 ms, median=0.149 ms, max=0.338 ms, 99th percentile=0.168 ms
07:18:04 PM.508:  ┃   ┗gs_flush: min=0.044 ms, median=0.094 ms, max=0.188 ms, 99th percentile=0.135 ms
07:18:04 PM.508:  ┗render_displays: min=0.235 ms, median=0.501 ms, max=1.794 ms, 99th percentile=1.042 ms
07:18:04 PM.508: OBSBasic::ResetVideo: 55.685 ms
07:18:04 PM.508: OBSBasic::ResetOutputs: 0.177 ms
07:18:04 PM.508: obs_graphics_thread(33.3333 ms): min=0.217 ms, median=13.861 ms, max=75.259 ms, 99th percentile=32.185 ms, 99.2278% below 33.333 ms
07:18:04 PM.508:  ┣tick_sources: min=0.002 ms, median=11.977 ms, max=43.378 ms, 99th percentile=28.761 ms
07:18:04 PM.508:  ┣output_frame: min=0.148 ms, median=0.618 ms, max=14.158 ms, 99th percentile=2.643 ms
07:18:04 PM.508:  ┃ ┣gs_context(video->graphics): min=0.148 ms, median=0.439 ms, max=9.787 ms, 99th percentile=1.604 ms
07:18:04 PM.508:  ┃ ┃ ┣render_video: min=0.073 ms, median=0.321 ms, max=9.596 ms, 99th percentile=1.195 ms
07:18:04 PM.508:  ┃ ┃ ┃ ┣render_main_texture: min=0.069 ms, median=0.182 ms, max=9.233 ms, 99th percentile=0.649 ms
07:18:04 PM.508:  ┃ ┃ ┃ ┣render_output_texture: min=0.037 ms, median=0.058 ms, max=3.29 ms, 99th percentile=0.264 ms, 0.712055 calls per parent call
07:18:04 PM.508:  ┃ ┃ ┃ ┣render_convert_texture: min=0.049 ms, median=0.076 ms, max=6.956 ms, 99th percentile=0.34 ms, 0.712055 calls per parent call
07:18:04 PM.508:  ┃ ┃ ┃ ┗stage_output_texture: min=0.032 ms, median=0.055 ms, max=9.066 ms, 99th percentile=0.271 ms, 0.712055 calls per parent call
07:18:04 PM.508:  ┃ ┃ ┣gs_flush: min=0.005 ms, median=0.064 ms, max=3.791 ms, 99th percentile=0.391 ms
07:18:04 PM.508:  ┃ ┃ ┗download_frame: min=0 ms, median=0.009 ms, max=8.188 ms, 99th percentile=0.023 ms, 0.712055 calls per parent call
07:18:04 PM.508:  ┃ ┗output_video_data: min=0.117 ms, median=0.17 ms, max=13.451 ms, 99th percentile=1.768 ms, 0.712014 calls per parent call
07:18:04 PM.508:  ┗render_displays: min=0.009 ms, median=0.897 ms, max=32.036 ms, 99th percentile=7.546 ms
07:18:04 PM.508: video_thread(video): min=0.433 ms, median=0.733 ms, max=130.779 ms, 99th percentile=3.113 ms
07:18:04 PM.508:  ┗receive_video: min=0.432 ms, median=0.728 ms, max=130.778 ms, 99th percentile=3.071 ms
07:18:04 PM.508:    ┗do_encode: min=0.431 ms, median=0.727 ms, max=130.777 ms, 99th percentile=3.07 ms
07:18:04 PM.508:      ┗encode(simple_h264_recording): min=0.426 ms, median=0.715 ms, max=130.639 ms, 99th percentile=2.678 ms
07:18:04 PM.508: =================================================
07:18:04 PM.508: == Profiler Time Between Calls ==================
07:18:04 PM.508: obs_hotkey_thread(25 ms): min=25.077 ms, median=31.882 ms, max=64.777 ms, 24.5463% within ±2% of 25 ms (0% lower, 75.4537% higher)
07:18:04 PM.508: obs_graphics_thread(33.3333 ms): min=33.177 ms, median=33.333 ms, max=33.488 ms, 100% within ±2% of 33.333 ms (0% lower, 0% higher)
07:18:04 PM.508: obs_graphics_thread(33.3333 ms): min=29.485 ms, median=33.334 ms, max=37.184 ms, 93.5484% within ±2% of 33.333 ms (3.22581% lower, 3.22581% higher)
07:18:04 PM.508: obs_graphics_thread(33.3333 ms): min=33.286 ms, median=33.333 ms, max=33.381 ms, 100% within ±2% of 33.333 ms (0% lower, 0% higher)
07:18:04 PM.508: obs_graphics_thread(33.3333 ms): min=33.295 ms, median=33.333 ms, max=33.373 ms, 100% within ±2% of 33.333 ms (0% lower, 0% higher)
07:18:04 PM.508: obs_graphics_thread(33.3333 ms): min=33.286 ms, median=33.334 ms, max=33.376 ms, 100% within ±2% of 33.333 ms (0% lower, 0% higher)
07:18:04 PM.508: obs_graphics_thread(33.3333 ms): min=33.288 ms, median=33.333 ms, max=33.382 ms, 100% within ±2% of 33.333 ms (0% lower, 0% higher)
07:18:04 PM.508: obs_graphics_thread(33.3333 ms): min=16.479 ms, median=33.333 ms, max=75.268 ms, 95.8005% within ±2% of 33.333 ms (2.10394% lower, 2.0956% higher)
07:18:04 PM.508: =================================================
07:18:04 PM.609: Number of memory leaks: 1
