00:00:00.400475 VirtualBox GUI VM Selector Window 6.1.16_Ubuntu r140961 linux.amd64 (Apr 29 2021 15:42:15) release log
00:00:00.400478 Log opened 2021-07-17T01:53:22.531120000Z
00:00:00.400479 Build Type: release
00:00:00.400485 OS Product: Linux
00:00:00.400487 OS Release: 5.4.0-77-generic
00:00:00.400488 OS Version: #86-Ubuntu SMP Thu Jun 17 02:35:03 UTC 2021
00:00:00.400530 DMI Product Name: System Product Name
00:00:00.400540 DMI Product Version: System Version
00:00:00.400555 Firmware type: BIOS
00:00:00.400611 Host RAM: 16006MB (15.6GB) total, 15301MB (14.9GB) available
00:00:00.400619 Executable: /usr/lib/virtualbox/VirtualBox
00:00:00.400620 Process ID: 1968
00:00:00.400620 Package type: LINUX_64BITS_GENERIC (OSE)
00:00:00.400660 Qt version: 5.12.8
00:00:00.442231 GUI: UIMediumEnumerator: Medium-enumeration started...
00:00:00.938843 GUI: UIDesktopWidgetWatchdog::sltHandleHostScreenAvailableGeometryCalculated: Screen 0 work area is actually resized to: 0x0 x 1920x1054
00:00:00.985750 GUI: UIMediumEnumerator: Medium-enumeration finished!
00:00:25.223177 GUI: UIMediumEnumerator: Medium-enumeration finished!
00:00:25.231712 GUI: UIMediumEnumerator: Medium-enumeration finished!
00:02:35.557679 GUI: UIMediumEnumerator: Medium-enumeration finished!
00:02:37.111459 GUI: UIMediumEnumerator: Medium-enumeration finished!
00:02:37.167714 GUI: UIMediumEnumerator: Medium-enumeration finished!
00:28:44.908112 GUI: UIMediumEnumerator: Medium-enumeration finished!
