00:00:00.409806 VirtualBox GUI VM Selector Window 6.1.16_Ubuntu r140961 linux.amd64 (Apr 29 2021 15:42:15) release log
00:00:00.409808 Log opened 2021-07-17T11:32:28.822659000Z
00:00:00.409808 Build Type: release
00:00:00.409813 OS Product: Linux
00:00:00.409813 OS Release: 5.4.0-77-generic
00:00:00.409814 OS Version: #86-Ubuntu SMP Thu Jun 17 02:35:03 UTC 2021
00:00:00.409840 DMI Product Name: System Product Name
00:00:00.409844 DMI Product Version: System Version
00:00:00.409852 Firmware type: BIOS
00:00:00.409886 Host RAM: 16006MB (15.6GB) total, 14664MB (14.3GB) available
00:00:00.409889 Executable: /usr/lib/virtualbox/VirtualBox
00:00:00.409889 Process ID: 2888
00:00:00.409890 Package type: LINUX_64BITS_GENERIC (OSE)
00:00:00.409915 Qt version: 5.12.8
00:00:00.455649 GUI: UIMediumEnumerator: Medium-enumeration started...
00:00:00.991561 GUI: UIDesktopWidgetWatchdog::sltHandleHostScreenAvailableGeometryCalculated: Screen 0 work area is actually resized to: 0x0 x 1920x1054
00:00:01.037789 GUI: UIMediumEnumerator: Medium-enumeration finished!
00:00:23.547455 GUI: UIMediumEnumerator: Medium-enumeration finished!
00:00:23.580744 GUI: UIMediumEnumerator: Medium-enumeration finished!
00:00:49.979460 GUI: UIMediumEnumerator: Medium-enumeration finished!
00:01:01.408021 GUI: UIMediumEnumerator: Medium-enumeration finished!
00:01:04.324020 GUI: UIMediumEnumerator: Medium-enumeration finished!
00:01:04.354797 GUI: UIMediumEnumerator: Medium-enumeration finished!
00:03:57.743424 GUI: UIMediumEnumerator: Medium-enumeration finished!
02:11:28.620314 GUI: UIMediumEnumerator: Medium-enumeration finished!
02:11:28.620345 Log rotated - Log started 2021-07-17T11:32:28.822659000Z
