00:00:00.406047 VirtualBox GUI VM Selector Window 6.1.16_Ubuntu r140961 linux.amd64 (Apr 29 2021 15:42:15) release log
00:00:00.406049 Log opened 2021-07-17T01:18:22.021149000Z
00:00:00.406050 Build Type: release
00:00:00.406055 OS Product: Linux
00:00:00.406056 OS Release: 5.4.0-77-generic
00:00:00.406057 OS Version: #86-Ubuntu SMP Thu Jun 17 02:35:03 UTC 2021
00:00:00.406090 DMI Product Name: System Product Name
00:00:00.406098 DMI Product Version: System Version
00:00:00.406111 Firmware type: BIOS
00:00:00.406159 Host RAM: 16006MB (15.6GB) total, 13063MB (12.7GB) available
00:00:00.406164 Executable: /usr/lib/virtualbox/VirtualBox
00:00:00.406165 Process ID: 21629
00:00:00.406165 Package type: LINUX_64BITS_GENERIC (OSE)
00:00:00.406200 Qt version: 5.12.8
00:00:00.445460 GUI: UIMediumEnumerator: Medium-enumeration started...
00:00:00.964913 GUI: UIDesktopWidgetWatchdog::sltHandleHostScreenAvailableGeometryCalculated: Screen 0 work area is actually resized to: 0x0 x 1920x1054
00:00:01.013631 GUI: UIMediumEnumerator: Medium-enumeration finished!
00:00:16.813950 GUI: UIMediumEnumerator: Medium-enumeration finished!
00:00:16.861419 GUI: UIMediumEnumerator: Medium-enumeration finished!
00:00:37.798526 GUI: UIMediumEnumerator: Medium with key={{42403235-1480-47ca-9531-274dc0c72956}} created
00:00:37.918663 GUI: UIMediumEnumerator: Medium-enumeration finished!
00:01:00.953605 GUI: UIMediumEnumerator: Medium-enumeration finished!
00:01:24.726518 GUI: UIMediumEnumerator: Medium-enumeration finished!
00:01:28.718743 GUI: UIMediumEnumerator: Medium-enumeration finished!
00:01:28.765099 GUI: UIMediumEnumerator: Medium-enumeration finished!
00:23:28.620850 GUI: UIMediumEnumerator: Medium-enumeration finished!
00:23:30.472003 GUI: UIMediumEnumerator: Medium-enumeration finished!
00:23:30.551676 GUI: UIMediumEnumerator: Medium-enumeration finished!
00:23:30.561919 GUI: UIMediumEnumerator: Medium-enumeration finished!
00:28:28.861406 GUI: UIMediumEnumerator: Medium-enumeration finished!
