02:11:28.620537 Log continuation - Log started 2021-07-17T11:32:28.822659000Z
02:11:29.907225 GUI: UIMediumEnumerator: Medium-enumeration finished!
02:11:30.007740 GUI: UIMediumEnumerator: Medium-enumeration finished!
02:11:30.016929 GUI: UIMediumEnumerator: Medium-enumeration finished!
02:15:12.895467 GUI: UIMediumEnumerator: Medium-enumeration finished!
02:15:13.685522 GUI: UIMediumEnumerator: Medium-enumeration finished!
02:15:24.871224 GUI: UIMediumEnumerator: Medium-enumeration finished!
02:15:24.877945 GUI: UIMediumEnumerator: Medium-enumeration finished!
02:19:18.434906 GUI: UIMediumEnumerator: Medium-enumeration finished!
02:19:19.772333 GUI: UIMediumEnumerator: Medium-enumeration finished!
02:19:19.888792 GUI: UIMediumEnumerator: Medium-enumeration finished!
02:48:22.531930 GUI: UIMediumEnumerator: Medium-enumeration finished!
05:05:18.353178 GUI: UIMediumEnumerator: Medium-enumeration finished!
05:05:18.353207 Log rotated - Log started 2021-07-17T11:32:28.822659000Z
