00:00:00.431605 VirtualBox GUI VM Selector Window 6.1.16_Ubuntu r140961 linux.amd64 (Apr 29 2021 15:42:15) release log
00:00:00.431608 Log opened 2021-07-17T21:14:59.936080000Z
00:00:00.431609 Build Type: release
00:00:00.431616 OS Product: Linux
00:00:00.431617 OS Release: 5.4.0-77-generic
00:00:00.431619 OS Version: #86-Ubuntu SMP Thu Jun 17 02:35:03 UTC 2021
00:00:00.431663 DMI Product Name: System Product Name
00:00:00.431673 DMI Product Version: System Version
00:00:00.431688 Firmware type: BIOS
00:00:00.431747 Host RAM: 16006MB (15.6GB) total, 12467MB (12.1GB) available
00:00:00.431758 Executable: /usr/lib/virtualbox/VirtualBox
00:00:00.431758 Process ID: 22327
00:00:00.431759 Package type: LINUX_64BITS_GENERIC (OSE)
00:00:00.431798 Qt version: 5.12.8
00:00:00.479655 GUI: UIMediumEnumerator: Medium-enumeration started...
00:00:01.014285 GUI: UIDesktopWidgetWatchdog::sltHandleHostScreenAvailableGeometryCalculated: Screen 0 work area is actually resized to: 0x0 x 1920x1054
00:00:01.066936 GUI: UIMediumEnumerator: Medium-enumeration finished!
00:40:21.036748 GUI: UIMediumEnumerator: Medium-enumeration finished!
00:40:41.249328 GUI: UIMediumEnumerator: Medium-enumeration finished!
