00:00:00.398764 VirtualBox GUI VM Selector Window 6.1.16_Ubuntu r140961 linux.amd64 (Apr 29 2021 15:42:15) release log
00:00:00.398766 Log opened 2021-07-17T01:50:02.133090000Z
00:00:00.398766 Build Type: release
00:00:00.398770 OS Product: Linux
00:00:00.398771 OS Release: 5.4.0-77-generic
00:00:00.398771 OS Version: #86-Ubuntu SMP Thu Jun 17 02:35:03 UTC 2021
00:00:00.398799 DMI Product Name: System Product Name
00:00:00.398803 DMI Product Version: System Version
00:00:00.398812 Firmware type: BIOS
00:00:00.398845 Host RAM: 16006MB (15.6GB) total, 15289MB (14.9GB) available
00:00:00.398849 Executable: /usr/lib/virtualbox/VirtualBox
00:00:00.398849 Process ID: 1934
00:00:00.398849 Package type: LINUX_64BITS_GENERIC (OSE)
00:00:00.398874 Qt version: 5.12.8
00:00:00.438299 GUI: UIMediumEnumerator: Medium-enumeration started...
00:00:00.953148 GUI: UIDesktopWidgetWatchdog::sltHandleHostScreenAvailableGeometryCalculated: Screen 0 work area is actually resized to: 0x0 x 1920x1054
00:00:00.994520 GUI: UIMediumEnumerator: Medium-enumeration finished!
